{
    "data": {
        "slug": "studied-aboard-canada",
        "title": "加拿大留學專欄喔",
        "cover": "https://tw.english.agency/gallery/category/47845415017648128/1519872532384543_o.jpeg",
        "content": "針對相關許多加拿大留學相關資訊進行整理。\n\n針對加拿大大學排名、留學費用、大學獎學金相關說明，以及申請文件、履歷、讀書計畫、推薦函辦理流程資訊，又或是針對學生升學方面的流程，如加拿大高中、加拿大大學資訊，幫助每位學生打造自己的升學計畫。"
    }
}