{
    "data": {
        "essay": {
            "title": "你聽過比利時音樂節嗎？盤點那些最炫最夯的世界各國特殊節慶！",
            "slug": "garment-vocabularies",
            "date": "2018-02-22 10:52:02",
            "coverUrl": "//tw.english.agency/gallery/post/47999289871437824/1519267922538847_o.jpeg",
            "category": {
                "slug": "studied-aboard-canada",
                "title": "加拿大留學專欄喔"
            },
            "author": {
                "name": "艾力克斯",
                "avatar": "https://tw.english.agency/gallery/author/47845272172236800/1519231201300552_q.png",
                "description": "旅行家，時常在各地遊走，喜好美食，也熱愛閱讀。"
            },
            "content": "<p style='font-size: 16px;'>除了感恩節和復活節這些對歐美人士來說很重要的節慶以外，世界各地也都有很多台灣沒有的節日、慶典，今天就來帶大家看看幾個世界各地的特殊節慶，並學習相關的節慶英文單字。</p> <p style='font-size: 20px; color: rgb(136, 0, 0);'><strong>Tomorrowland 比利時電子音樂節</strong></p> <p style='font-size: 20px; color: rgb(136, 0, 0);'><strong><img title='節慶英文' src='https://media-english-agency.s3.ap-southeast-1.amazonaws.com/images/5a884acae9b17-Qr2ILT2o48P7bm09v4yOHZE09twspQ-1024x682.jpeg' alt='節慶英文' width='1024' height='682'></strong></p> <p style='font-size: 16px;'><span style='font-weight: 400;'>Tomorrow land 是世界最大的電子音樂節之一，從2005 年創辦至今，每年都會有很多電音愛好者朝聖</span></p> <p style='font-size: 16px; color: rgb(0, 51, 119);'><span style='font-weight: 400;'>【延伸】</span></p> <p style='font-size: 16px; color: rgb(0, 51, 119);'><strong>Electronic Music</strong><span style='font-weight: 400;'> 電音</span></p> <p style='font-size: 16px; color: rgb(0, 51, 119);'><strong>EDM = Electronic Dance Music</strong><span style='font-weight: 400;'> 電音舞曲</span>&nbsp;</p> <p style='font-size: 16px; color: rgb(0, 51, 119);'><strong>Electronic <span style='font-weight: 400;'>vs. </span>Electric<span style='font-weight: 400;'> vs. </span>Electrical</strong></p> <p style='font-size: 16px; color: rgb(0, 51, 119);'><span style='font-weight: 400;'>這三個詞在字典裡的解釋幾乎一模一樣，都是「電動的」意思，但他們的分別在於：</span></p> <p style='font-size: 16px; color: rgb(0, 51, 119);'><strong>Electronic</strong><span style='font-weight: 400;'> 比較廣泛，是指用電力發動、稍微複雜、需要經過處理的東西</span></p> <p style='font-size: 16px; color: rgb(0, 51, 119);'><span style='font-weight: 400;'>例如 </span><strong>Electronic books</strong><span style='font-weight: 400;'>電子書</span></p> <p style='font-size: 16px; color: rgb(0, 51, 119);'><span style='font-weight: 400;'>Electronic加個s = </span><strong>Electronics</strong><span style='font-weight: 400;'> 也用來統稱電子產品</span></p> <p style='font-size: 16px; color: rgb(0, 51, 119);'><strong>Electric</strong><span style='font-weight: 400;'> 是「以電力發動的」 或是 「帶電的」、「和電有關的」，但沒那麼複雜的裝置</span></p> <p style='font-size: 16px; color: rgb(0, 51, 119);'><span style='font-weight: 400;'>例如 </span><strong>Electric Guitar</strong><span style='font-weight: 400;'> 電吉他</span></p> <p style='font-size: 16px; color: rgb(0, 51, 119);'><strong>Electrica</strong><span style='font-weight: 400;'>l</span><span style='font-weight: 400;'>和 Electric 通用，不過Electrical 更常用為「電力學的」、和電路管線相關的</span></p> <p style='font-size: 16px; color: rgb(0, 51, 119);'><span style='font-weight: 400;'>像是 </span><strong>Electrical Engineering </strong><span style='font-weight: 400;'>電機工程</span></p> <p style='font-size: 20px; color: rgb(136, 0, 0);'><strong>Merfest 北卡羅萊納州美人魚節</strong></p> <p style='font-size: 20px; color: rgb(136, 0, 0);'><strong><img title='節慶英文' src='https://media-english-agency.s3.ap-southeast-1.amazonaws.com/images/5a884b9168b3a-SaogpYRs1wR5VXAvWEtASRQg5dPxSC-720x360.jpeg' alt='節慶英文' width='720' height='360'></strong></p> <p style='font-size: 16px;'><span style='font-weight: 400;'>北卡羅來納州每年會舉辦美人魚節，超過三百隻的“男人魚”和“美人魚”聚集一堂，精心打扮成人魚</span></p> <p style='font-size: 16px; color: rgb(0, 51, 119);'><span style='font-weight: 400;'>【延伸】</span></p> <p style='font-size: 16px; color: rgb(0, 51, 119);'><strong>Mermaid</strong><span style='font-weight: 400;'> 美人魚</span></p> <p style='font-size: 16px; color: rgb(0, 51, 119);'><strong>Jellyfish</strong><span style='font-weight: 400;'> 水母</span></p> <p style='font-size: 16px; color: rgb(0, 51, 119);'><strong>Scallop</strong><span style='font-weight: 400;'> 干貝</span></p> <p style='font-size: 16px; color: rgb(0, 51, 119);'><strong>Coral reef</strong><span style='font-weight: 400;'> 珊瑚礁</span></p> <p style='font-size: 16px; color: rgb(0, 51, 119);'><strong>Atoll</strong><span style='font-weight: 400;'> 環礁</span></p> <p style='font-size: 16px; color: rgb(0, 51, 119);'><strong>Coast</strong><span style='font-weight: 400;'> 海岸</span></p> <p style='font-size: 16px; color: rgb(0, 51, 119);'><strong>Coastline</strong><span style='font-weight: 400;'> 海岸線</span></p> <p style='font-size: 16px; color: rgb(0, 51, 119);'><strong>Underwater coastal city</strong><span style='font-weight: 400;'> 低於海平面的沿岸城市</span></p> <p style='font-size: 16px; color: rgb(0, 51, 119);'><strong>Marine Conservation</strong><span style='font-weight: 400;'> 海洋保育</span></p> <p style='font-size: 16px; color: rgb(0, 51, 119);'><strong>Eco-friendly</strong><span style='font-weight: 400;'> 對環境友善的</span></p> <p style='font-size: 16px; color: rgb(0, 51, 119);'><strong>【例句】</strong></p> <p style='font-size: 16px; color: rgb(0, 51, 119);'><span style='font-weight: 400;'>There are many things you can do to save the oceans. For example，you can use less fertilizer，buy ocean-friendly products，use reusable plastic products and eat sustainable seafood</span><strong>.</strong></p> <p style='font-size: 16px; color: rgb(0, 51, 119);'><span style='font-weight: 400;'>你可以做很多事來拯救海洋。例如 可以使用較少的肥料</span></p> <p style='font-size: 20px; color: rgb(136, 0, 0);'><strong>Holi Festival 印度色彩節</strong></p> <p style='font-size: 20px; color: rgb(136, 0, 0);'><strong><img title='節慶英文' src='https://media-english-agency.s3.ap-southeast-1.amazonaws.com/images/5a884ca224e9f-6vp9ArHM09Ol5NQ4G1pQxZXH0rlB7r-760x460.jpeg' alt='節慶英文' width='760' height='460'></strong></p> <p style='font-size: 16px;'><span style='font-weight: 400;'>印度人每年到了三月份的色彩節，人們都會將各種顏色的顏料、粉末像彼此身上揮灑。其實這節日象徵的是色彩單調的冬天已經結束，迎接春天這個充滿顏色、希望的季節的到來</span></p> <p style='font-size: 16px; color: rgb(0, 51, 119);'><span style='font-weight: 400;'>【延伸】 </span></p> <p style='font-size: 16px; color: rgb(0, 51, 119);'><span style='font-weight: 400;'>一些少見的英文顏色整理：</span></p> <p style='font-size: 16px; color: rgb(0, 159, 204);'><strong>azure</strong><span style='font-weight: 400;'> 天藍色</span></p> <p style='font-size: 16px; color: rgb(153, 0, 255);'><strong>blueviolet </strong><span style='font-weight: 400;'>紫羅蘭色</span></p> <p style='font-size: 16px; color: rgb(170, 119, 0);'><strong>linen</strong><span style='font-weight: 400;'> 亞麻色</span></p> <p style='font-size: 16px; color: rgb(102, 136, 0);'><strong>olive green</strong><span style='font-weight: 400;'> 橄欖綠</span></p> <p style='font-size: 16px; color: rgb(204, 0, 0);'><strong>scarlet</strong><span style='font-weight: 400;'> 緋紅</span></p> <p style='font-size: 16px; color: rgb(136, 136, 136);'><strong>misty gray</strong><span style='font-weight: 400;'> 霧灰色</span></p> <p style='font-size: 16px; color: rgb(0, 136, 102);'><strong>aquamarine blue</strong><span style='font-weight: 400;'> 藍綠色</span></p> <p style='font-size: 16px; color: rgb(136, 0, 0);'><span style='font-weight: 400;'>＃顏色有關的片語整理</span></p> <p style='font-size: 16px; color: rgb(136, 0, 0);'><strong>The grass is always greener than the other side of the fence. </strong></p> <p style='font-size: 16px; color: rgb(136, 0, 0);'><span style='font-weight: 400;'>指的是我們常常羨慕別人擁有的、覺得別人的比較好，類似於中文中的</span></p> <p style='font-size: 16px; color: rgb(136, 0, 0);'><span style='font-weight: 400;'>「外國的月亮比較圓」</span></p> <p style='font-size: 16px; color: rgb(136, 0, 0);'><strong>Once in the blue moon</strong></p> <p style='font-size: 16px; color: rgb(136, 0, 0);'><span style='font-weight: 400;'>非常罕見的意思，近於</span><strong>hardly ever，rarely，seldom，almost never </strong></p> <p style='font-size: 16px; color: rgb(136, 0, 0);'><span style='font-weight: 400;'>Since I live abroad，I get to see my family once in the blue moon.</span></p> <p style='font-size: 16px; color: rgb(136, 0, 0);'><span style='font-weight: 400;'>因為住在國外，我非常少見到我的家人。</span></p> <p style='font-size: 16px; color: rgb(136, 0, 0);'><strong>Green with envy</strong></p> <p style='font-size: 16px; color: rgb(136, 0, 0);'><span style='font-weight: 400;'>「眼紅」的英文不是red-eyed，而是 </span><strong>green-eyed</strong><span style='font-weight: 400;'>. 而Green with envy 是指嫉妒得要死的意思。</span></p> <p style='font-size: 16px; color: rgb(136, 0, 0);'><span style='font-weight: 400;'>I was green with envy when Jacky won the lottery. </span></p> <p style='font-size: 16px; color: rgb(136, 0, 0);'><span style='font-weight: 400;'>當Jacky贏得樂透時，我嫉妒得要命！</span></p> <p style='font-size: 20px; color: rgb(136, 0, 0);'><strong>Oktoberfest 慕尼黑啤酒節</strong></p> <p style='font-size: 20px; color: rgb(136, 0, 0);'><strong><img title='節慶英文' src='https://media-english-agency.s3.ap-southeast-1.amazonaws.com/images/5a884c91b52aa-8YEH5qCRy9z0j6hux0hq9t2ewJK71k-507x338.jpeg' alt='節慶英文' width='507' height='338'></strong></p> <p style='font-size: 16px;'><span style='font-weight: 400;'>這個應該比較多人聽說過了！ 慕尼黑啤酒節現在已經是全世界最重要的節慶(World’s largest annual fair) 之一，節慶持續兩週，現在已經轉型為嘉年華會了</span></p> <p style='font-size: 16px; color: rgb(0, 51, 119);'><span style='font-weight: 400;'>【延伸】</span></p> <p style='font-size: 16px; color: rgb(0, 51, 119);'><strong>Carnival</strong><span style='font-weight: 400;'> 嘉年華會</span></p> <p style='font-size: 16px; color: rgb(0, 51, 119);'><span style='font-weight: 400;'>喝酒相關的英文片語</span></p> <p style='font-size: 16px; color: rgb(0, 51, 119);'><span style='font-weight: 400;'>酒類：</span></p> <p style='font-size: 16px; color: rgb(0, 51, 119);'><strong>Beer</strong><span style='font-weight: 400;'> 啤酒</span></p> <p style='font-size: 16px; color: rgb(0, 51, 119);'><strong>Draft beer</strong><span style='font-weight: 400;'> 生啤酒</span></p> <p style='font-size: 16px; color: rgb(0, 51, 119);'><strong>Vodka</strong><span style='font-weight: 400;'> 伏特加</span></p> <p style='font-size: 16px; color: rgb(0, 51, 119);'><strong>Tequila</strong><span style='font-weight: 400;'> 龍舌蘭</span></p> <p style='font-size: 16px; color: rgb(0, 51, 119);'><strong>Cocktails</strong><strong>Cheers</strong><span style='font-weight: 400;'>/ </span><strong>Bottoms up</strong><span style='font-weight: 400;'>乾杯</span></p> <p style='font-size: 16px; color: rgb(0, 51, 119);'><strong>Tipsy</strong><span style='font-weight: 400;'> 微醺</span></p> <p style='font-size: 16px; color: rgb(0, 51, 119);'><strong>Drunk</strong><span style='font-weight: 400;'>/ </span><strong>wasted</strong><span style='font-weight: 400;'>/ </span><strong>pissed</strong><span style='font-weight: 400;'>/ </span><strong>hammered</strong><span style='font-weight: 400;'>/ </span><strong>plastered</strong><span style='font-weight: 400;'>/ </span><strong>smashed</strong><span style='font-weight: 400;'> 喝醉的</span></p> <p style='font-size: 16px; color: rgb(0, 51, 119);'><strong>On the rocks </strong><span style='font-weight: 400;'>加冰塊</span></p> <p style='font-size: 16px; color: rgb(0, 51, 119);'><strong>Neat</strong><span style='font-weight: 400;'> 不加冰塊</span></p> <p style='font-size: 16px; color: rgb(0, 51, 119);'><strong>Have a hangover</strong><span style='font-weight: 400;'> 宿醉</span></p> <p style='font-size: 16px; color: rgb(0, 51, 119);'><strong>Keep it open</strong><span style='font-weight: 400;'> 這是一句常跟bartender說的，意思是先不結帳、等等繼續點</span></p> <p style='font-size: 16px; color: rgb(0, 51, 119);'><strong>Asian flush/ Asian glow</strong><span style='font-weight: 400;'> 喝酒後臉紅的反應，常見於亞洲人中</span></p>"
        }
    }
}